Test Novel Object Analysis
…
# broom includes tidy()
library(broom)

Read in the raw data

Read in the novel object test raw data (Analysis Output-VA Novel Object.csv):

# Import novel object data
novelObjectRaw <- read_csv("Analysis Output-VA Novel Object.csv", skip = 4, 
                            col_names = header)
# Look at Novel Object data
novelObjectRaw

## # A tibble: 40 x 13
##    `Object Type` `Trial # NO` `Trial # OF` `Novel Object` `Familiar Objec~
##    <chr>                <dbl>        <dbl> <chr>          <chr>           
##  1 Familiar                 1            1 object 1       object 2        
##  2 Familiar                 2            2 object 1       object 2        
##  3 Familiar                 3            3 object 1       object 2        
##  4 Familiar                 4            4 object 1       object 2        
##  5 Novel                    5            1 object 1       object 2        
##  6 Novel                    6            2 object 1       object 2        
##  7 Novel                    7            3 object 1       object 2        
##  8 Novel                    8            4 object 1       object 2        
##  9 Familiar                 9            5 object 1       object 2        
## 10 Familiar                10            6 object 1       object 2        
## # ... with 30 more rows, and 8 more variables: `Distance to objects:object
## #   1/Nose-point:Mean` <dbl>, `Distance to objects:object
## #   2/Nose-point:Mean` <dbl>, `Nose touching objects:object
## #   1/Nose-point:Duration` <dbl>, `Nose touching objects:object
## #   1/Nose-point:Frequency` <dbl>, `Nose touching objects:object
## #   1/Nose-point:Latency to first` <dbl>, `Nose touching objects:object
## #   2/Nose-point:Duration` <dbl>, `Nose touching objects:object
## #   2/Nose-point:Frequency` <dbl>, `Nose touching objects:object
## #   2/Nose-point:Latency to first` <dbl>
…
Remove the first animal because it was used as a test animal:

# Select all but the first row
novelObjectFiltered <- 
    novelObjectExpanded %>% 
    slice(2:n())

# Take a look at the data with rows filtered
novelObjectFiltered

## # A tibble: 39 x 48
##    `Object Type` `Trial # NO` `Trial # OF` `Novel Object` `Familiar Objec~
##    <chr>                <dbl>        <dbl> <chr>          <chr>           
##  1 Familiar                 2            2 object 1       object 2        
##  2 Familiar                 3            3 object 1       object 2        
##  3 Familiar                 4            4 object 1       object 2        
##  4 Novel                    5            1 object 1       object 2        
##  5 Novel                    6            2 object 1       object 2        
##  6 Novel                    7            3 object 1       object 2        
##  7 Novel                    8            4 object 1       object 2        
##  8 Familiar                 9            5 object 1       object 2        
##  9 Familiar                10            6 object 1       object 2        
## 10 Familiar                11            7 object 1       object 2        
## # ... with 29 more rows, and 43 more variables: `Distance to
## #   objects:object 1/Nose-point:Mean` <dbl>, `Distance to objects:object
## #   2/Nose-point:Mean` <dbl>, `Nose touching objects:object
## #   1/Nose-point:Duration` <dbl>, `Nose touching objects:object
## #   1/Nose-point:Frequency` <dbl>, `Nose touching objects:object
## #   1/Nose-point:Latency to first` <dbl>, `Nose touching objects:object
## #   2/Nose-point:Duration` <dbl>, `Nose touching objects:object
## #   2/Nose-point:Frequency` <dbl>, `Nose touching objects:object
## #   2/Nose-point:Latency to first` <dbl>, Treatment <dbl>, Sex <fct>,
…
Select only the variables that will be analyzed:

# Select variables that will be analyzed
novelObjectData <- 
    novelObjectFiltered %>% 
    select(TrialType, Treatment = TreatmentStr, Sex, 
           DurationObject1, DurationObject2, DurationObjectRatio, DiscriminationIndex, Tag, TrialTypeTreatment)

# Take a look at the data with columns filtered
novelObjectData

## # A tibble: 39 x 9
##    TrialType Treatment Sex   DurationObject1 DurationObject2
##    <fct>     <fct>     <fct>           <dbl>           <dbl>
##  1 Familiar  Control   F                40.2            37.0
##  2 Familiar  Ethosuxi~ F                28.0            36.2
##  3 Familiar  Control   M                14.6            23.8
##  4 Novel     Control   F                48.0            28.8
##  5 Novel     Control   F                44.8            20.4
##  6 Novel     Ethosuxi~ F                52.9            25.4
##  7 Novel     Control   M                48.8            24.2
##  8 Familiar  Control   M                40.4            20.2
##  9 Familiar  Ethosuxi~ F                51.9            33.8
## 10 Familiar  Ethosuxi~ F                64.9            54.1
## # ... with 29 more rows, and 4 more variables: DurationObjectRatio <dbl>,
## #   DiscriminationIndex <dbl>, Tag <chr>, TrialTypeTreatment <fct>
…
